module github.com/sigstore/sigstore/pkg/signature/kms/aws

replace github.com/sigstore/sigstore => ../../../../

go 1.20

require (
	github.com/aws/aws-sdk-go v1.49.4
	github.com/aws/aws-sdk-go-v2 v1.24.0
	github.com/aws/aws-sdk-go-v2/config v1.26.1
	github.com/aws/aws-sdk-go-v2/service/kms v1.27.6
	github.com/jellydator/ttlcache/v3 v3.1.1
	github.com/sigstore/sigstore v1.6.4
	github.com/stretchr/testify v1.8.4
)

require (
	github.com/aws/aws-sdk-go-v2/credentials v1.16.12 // indirect
	github.com/aws/aws-sdk-go-v2/feature/ec2/imds v1.14.10 // indirect
	github.com/aws/aws-sdk-go-v2/internal/configsources v1.2.9 // indirect
	github.com/aws/aws-sdk-go-v2/internal/endpoints/v2 v2.5.9 // indirect
	github.com/aws/aws-sdk-go-v2/internal/ini v1.7.2 // indirect
	github.com/aws/aws-sdk-go-v2/service/internal/accept-encoding v1.10.4 // indirect
	github.com/aws/aws-sdk-go-v2/service/internal/presigned-url v1.10.9 // indirect
	github.com/aws/aws-sdk-go-v2/service/sso v1.18.5 // indirect
	github.com/aws/aws-sdk-go-v2/service/ssooidc v1.21.5 // indirect
	github.com/aws/aws-sdk-go-v2/service/sts v1.26.5 // indirect
	github.com/aws/smithy-go v1.19.0 // indirect
	github.com/davecgh/go-spew v1.1.1 // indirect
	github.com/google/go-containerregistry v0.17.0 // indirect
	github.com/jmespath/go-jmespath v0.4.0 // indirect
	github.com/kr/pretty v0.2.1 // indirect
	github.com/letsencrypt/boulder v0.0.0-20230907030200-6d76a0f91e1e // indirect
	github.com/opencontainers/go-digest v1.0.0 // indirect
	github.com/pmezard/go-difflib v1.0.0 // indirect
	github.com/secure-systems-lab/go-securesystemslib v0.8.0 // indirect
	github.com/titanous/rocacheck v0.0.0-20171023193734-afe73141d399 // indirect
	golang.org/x/crypto v0.17.0 // indirect
	golang.org/x/sync v0.3.0 // indirect
	golang.org/x/sys v0.15.0 // indirect
	golang.org/x/term v0.15.0 // indirect
	gopkg.in/go-jose/go-jose.v2 v2.6.1 // indirect
	gopkg.in/yaml.v3 v3.0.1 // indirect
)
