module github.com/sigstore/sigstore/pkg/signature/kms/gcp

replace github.com/sigstore/sigstore => ../../../../

go 1.20

require (
	cloud.google.com/go/kms v1.15.5
	github.com/jellydator/ttlcache/v3 v3.1.1
	github.com/sigstore/sigstore v1.6.4
	golang.org/x/oauth2 v0.15.0
	google.golang.org/api v0.154.0
	google.golang.org/protobuf v1.31.0
)

require (
	cloud.google.com/go/compute v1.23.3 // indirect
	cloud.google.com/go/compute/metadata v0.2.3 // indirect
	cloud.google.com/go/iam v1.1.5 // indirect
	github.com/felixge/httpsnoop v1.0.4 // indirect
	github.com/go-logr/logr v1.3.0 // indirect
	github.com/go-logr/stdr v1.2.2 // indirect
	github.com/golang/groupcache v0.0.0-20210331224755-41bb18bfe9da // indirect
	github.com/golang/protobuf v1.5.3 // indirect
	github.com/google/go-containerregistry v0.17.0 // indirect
	github.com/google/s2a-go v0.1.7 // indirect
	github.com/googleapis/enterprise-certificate-proxy v0.3.2 // indirect
	github.com/googleapis/gax-go/v2 v2.12.0 // indirect
	github.com/kr/pretty v0.2.1 // indirect
	github.com/letsencrypt/boulder v0.0.0-20230907030200-6d76a0f91e1e // indirect
	github.com/opencontainers/go-digest v1.0.0 // indirect
	github.com/secure-systems-lab/go-securesystemslib v0.8.0 // indirect
	github.com/titanous/rocacheck v0.0.0-20171023193734-afe73141d399 // indirect
	go.opencensus.io v0.24.0 // indirect
	go.opentelemetry.io/contrib/instrumentation/google.golang.org/grpc/otelgrpc v0.46.1 // indirect
	go.opentelemetry.io/contrib/instrumentation/net/http/otelhttp v0.46.1 // indirect
	go.opentelemetry.io/otel v1.21.0 // indirect
	go.opentelemetry.io/otel/metric v1.21.0 // indirect
	go.opentelemetry.io/otel/trace v1.21.0 // indirect
	golang.org/x/crypto v0.17.0 // indirect
	golang.org/x/net v0.19.0 // indirect
	golang.org/x/sync v0.5.0 // indirect
	golang.org/x/sys v0.15.0 // indirect
	golang.org/x/term v0.15.0 // indirect
	golang.org/x/text v0.14.0 // indirect
	golang.org/x/time v0.5.0 // indirect
	google.golang.org/appengine v1.6.8 // indirect
	google.golang.org/genproto v0.0.0-20231120223509-83a465c0220f // indirect
	google.golang.org/genproto/googleapis/api v0.0.0-20231120223509-83a465c0220f // indirect
	google.golang.org/genproto/googleapis/rpc v0.0.0-20231127180814-3a041ad873d4 // indirect
	google.golang.org/grpc v1.59.0 // indirect
	gopkg.in/go-jose/go-jose.v2 v2.6.1 // indirect
	gopkg.in/yaml.v3 v3.0.1 // indirect
)
